date,tot_mois
2020-3,3523
2020-4,24376
2020-5,28802
2020-6,29843
2020-7,30265
2020-8,30635
2020-9,31956
2020-10,36788
2020-11,52731
2020-12,64632
2021-1,76057
2021-2,86428
2021-3,95640
2021-4,97273