dep;jour;pro_vac_tot_dose1;pro_vac_tot_dose2
01;2021-04-20;2525;1175
02;2021-04-20;2719;1316
03;2021-04-20;2354;1386
04;2021-04-20;1121;647
05;2021-04-20;726;417
06;2021-04-20;4824;2871
07;2021-04-20;2650;1662
08;2021-04-20;1560;962
09;2021-04-20;1078;672
10;2021-04-20;2023;1194
11;2021-04-20;2304;1193
12;2021-04-20;2369;1281
13;2021-04-20;8968;5303
14;2021-04-20;5392;2905
15;2021-04-20;1125;626
16;2021-04-20;2038;1526
17;2021-04-20;4248;2718
18;2021-04-20;2064;1448
19;2021-04-20;1760;1233
21;2021-04-20;3103;2086
22;2021-04-20;4921;3088
23;2021-04-20;967;543
24;2021-04-20;2761;1784
25;2021-04-20;1888;1003
26;2021-04-20;2712;1170
27;2021-04-20;2459;1308
28;2021-04-20;2489;1486
29;2021-04-20;8015;4996
2A;2021-04-20;369;220
2B;2021-04-20;445;266
30;2021-04-20;4291;2476
31;2021-04-20;7715;3965
32;2021-04-20;1856;1260
33;2021-04-20;9247;5225
34;2021-04-20;6560;3317
35;2021-04-20;8901;4567
36;2021-04-20;1610;914
37;2021-04-20;3695;1899
38;2021-04-20;4458;2535
39;2021-04-20;1022;692
40;2021-04-20;2807;1808
41;2021-04-20;2092;1373
42;2021-04-20;5059;2583
43;2021-04-20;1964;1048
44;2021-04-20;8727;5402
45;2021-04-20;2595;1823
46;2021-04-20;1238;662
47;2021-04-20;1783;982
48;2021-04-20;826;462
49;2021-04-20;5729;3084
50;2021-04-20;3719;2370
51;2021-04-20;2188;1310
52;2021-04-20;975;440
53;2021-04-20;2739;1448
54;2021-04-20;3614;2234
55;2021-04-20;773;373
56;2021-04-20;5851;3163
57;2021-04-20;6285;3352
58;2021-04-20;1257;692
59;2021-04-20;12973;6211
60;2021-04-20;3352;1599
61;2021-04-20;2393;1391
62;2021-04-20;6900;3261
63;2021-04-20;4000;2327
64;2021-04-20;4440;2441
65;2021-04-20;1222;477
66;2021-04-20;2727;1964
67;2021-04-20;6472;4078
68;2021-04-20;3387;1803
69;2021-04-20;7565;3759
70;2021-04-20;829;477
71;2021-04-20;3498;1903
72;2021-04-20;2877;1460
73;2021-04-20;2482;1488
74;2021-04-20;2085;821
75;2021-04-20;6916;3235
76;2021-04-20;7626;4543
77;2021-04-20;4934;2361
78;2021-04-20;5447;2689
79;2021-04-20;2492;1839
80;2021-04-20;3270;1581
81;2021-04-20;3001;1361
82;2021-04-20;1385;707
83;2021-04-20;5385;2827
84;2021-04-20;2547;1428
85;2021-04-20;5751;3704
86;2021-04-20;3462;2224
87;2021-04-20;2071;1079
88;2021-04-20;3078;1663
89;2021-04-20;2526;1522
90;2021-04-20;617;330
91;2021-04-20;4743;2457
92;2021-04-20;7263;3595
93;2021-04-20;3718;1835
94;2021-04-20;5087;2272
95;2021-04-20;3981;1964
971;2021-04-20;190;143
972;2021-04-20;192;117
973;2021-04-20;108;44
974;2021-04-20;750;405
976;2021-04-20;83;20
977;2021-04-20;7;4
